[
    {   "name": "Billy Sue", 
        "cost": 3, 
        "icon": "Princess",
        "health": 2,
        "damage": 1,
        "damageType": "Physical",
        "immunities": [false,false],
        "action": "Rolling_Pin"
        
    },
    {   "name": "Jimmy Jack", 
        "cost": 1, 
        "icon": "Philosopher",
        "health": 4, 
        "damage": 1, 
        "damageType": "Mental", 
        "immunities": [false, true],
         "action": "Babble"
    },
    {   "name": "Jackie Sue", 
        "cost": 2, 
        "icon": "BeautyQueen",
        "health": 2, 
        "damage": 3, 
        "damageType": "Mental", 
        "immunities": [false, true],
         "action": "Seduction"
    }
]
